…
> Hadley: I’m going to call this Acosta…that’s a terrible idea because I
> will systematically type it wrong every single time..and again I’m
> going to name those variables so it looks the first column is
> organization, (`org`),`type`, and `position` … and so then the next
> thing I want to do I think let’s just view this again. What’s happened
> is I think we’ve actually got multiple tables in here…so I think a
> good place to start is to try and just work on a single table.

``` r
names(Acosta) <- c("org", "type", "position", "from", "to")
Acosta
```

    ## # A tibble: 27 x 5
    ##    org                               type        position     from   to   
    ##    <chr>                             <chr>       <chr>        <chr>  <chr>
    ##  1 1. Filer's Positions Held Outsid… ""          ""           ""     ""   
    ##  2 # ORGANIZATION NAME CITY, STATE   ORGANIZATI… POSITION HE… FROM   TO   
    ##  3 ""                                TYPE        ""           ""     ""   
    ##  4 1 Florida International Universi… University… Dean of the  7/2009 4/20…
    ##  5 ""                                ge          College of … ""     ""   
    ##  6 2 Breakthrough Miami Miami, Flor… Non-Profit  Director     2/2017 4/20…
    ##  7 3 Gulliver Schools Miami, Florida Non-Profit  Trustee      11/20… 4/20…
    ##  8 4 U.S. Century Bank Miami, Flori… Corporation Chair, Boar… 11/20… 4/20…
    ##  9 ""                                ""          Directors    ""     ""   
    ## 10 5 American Bar Association Commi… Profession… Chairman     8/2015 4/20…
    ## # … with 17 more rows
…
